{
    "Data": [
        "/afs/cern.ch/work/c/caiy/public/TES_TestSamples/Data_0p0.root"
    ],
    "QCDData": [
        "/afs/cern.ch/work/c/caiy/public/TES_TestSamples/QCD_Data_0p0.root"
    ],
    "Signal": [
        "/afs/cern.ch/work/c/caiy/public/TES_TestSamples/Ztt_221_"
    ],
    "Backgrounds":[
	    "/afs/cern.ch/work/c/caiy/public/TES_TestSamples/MultiBoson_",
	    "/afs/cern.ch/work/c/caiy/public/TES_TestSamples/Zll_221_"  ,
	    "/afs/cern.ch/work/c/caiy/public/TES_TestSamples/TTbar_"     ,
	    "/afs/cern.ch/work/c/caiy/public/TES_TestSamples/SingleTop_"
    ],
    "W":[
        "/afs/cern.ch/work/c/caiy/public/TES_TestSamples/Wt_221_",
        "/afs/cern.ch/work/c/caiy/public/TES_TestSamples/Wl_221_"
    ],
    "QCDBackgrounds":[
	    "/afs/cern.ch/work/c/caiy/public/TES_TestSamples/QCD_Zll_221_"  ,
	    "/afs/cern.ch/work/c/caiy/public/TES_TestSamples/QCD_Ztt_221_"  ,
	    "/afs/cern.ch/work/c/caiy/public/TES_TestSamples/QCD_TTbar_"     ,
	    "/afs/cern.ch/work/c/caiy/public/TES_TestSamples/QCD_SingleTop_" ,
	    "/afs/cern.ch/work/c/caiy/public/TES_TestSamples/QCD_MultiBoson_" 
    ],
    "QCDW":[
        "/afs/cern.ch/work/c/caiy/public/TES_TestSamples/QCD_Wt_221_",
        "/afs/cern.ch/work/c/caiy/public/TES_TestSamples/QCD_Wl_221_"
    ],
    "k_w_1p_os" : 1.20198, 
    "k_w_1p_ss" : 1.14249, 
    "k_w_3p_os" : 1.49466, 
    "k_w_3p_ss" : 1.48809, 
    "r_1p" : 1.14249,
    "r_3p" : 1.48809,
    "LearnRate" : 0.00005,
    "Stop" : 0.00000001,
    "MomentumGamma" : 0
}
